﻿<table cellspacing="0" cellpadding="0" border="0" style="color:#333;background:#fff;padding:0;margin:0;width:100%;font:15px/1.25em 'Helvetica Neue',Arial,Helvetica"> 
	<tbody>
		<tr width="100%"> 
			<td valign="top" align="left" style="background:#f0f0f0;font:15px/1.25em 'Helvetica Neue',Arial,Helvetica"> 
				<table style="border:none;padding:0 18px;margin:50px auto;width:500px"> 
					<tbody>
						<tr width="100%" height="57"> 
							<td valign="top" align="left" style="border-top-left-radius:4px;border-top-right-radius:4px;background:#E7E7E9;padding:12px 18px;text-align:center">
								<a href="http://www.contabilium.com"><img height="57" src="https://app.contabilium.com/images/logo-mail-gris.png" title="Contabilium" /> </a>
							</td> 
						</tr>
						<tr width="100%"> 
							<td valign="top" align="left" style="border-bottom-left-radius:4px;border-bottom-right-radius:4px;background:#fff;padding:18px">
								<h1 style="font-size:20px;margin:0;color:#333">
									Estimado administrador, verifique los siguientes datos.
								</h1>
								<p style="font:15px/1.25em 'Helvetica Neue',Arial,Helvetica;color:#333">
									<br />
					                El usuario: <USUARIO-MAIL>
					                <br />
									ID: <ID>
					                <br />
									email: <EMAIL>
					                <br />
									<br />
									Forma de pago: <FORMAPAGO>
									<br />
									Importe Pagado : <IMPORTE>
									<br />
									<br />

								</p>
								<p style="font:15px/1.25em 'Helvetica Neue',Arial,Helvetica;color:#333">
									<br /><br />
									<b>Muchas Gracias, <a href="http://www.contabilium.com">Contabilium</a></b>
								</p>
								<p style="font:15px/1.25em 'Helvetica Neue',Arial,Helvetica;color:#939393;margin-bottom:0">
									No respondas este mail.
								</p>
							</td> 
						</tr>
					</tbody>
				</table>
			</td>
		</tr>
	</tbody>
</table>